Symtem_C_Implement/gcd_waveform.vcd
$date
     Apr 28, 2025       10:29:17
$end

$version
 SystemC 2.3.3-Accellera --- Mar 21 2025 01:05:15
$end

$timescale
     1 ps
$end

$scope module SystemC $end
$var wire    1  aaaaa  clk       $end
$var wire    1  aaaab  reset       $end
$var wire    1  aaaac  go       $end
$var wire    4  aaaad  x_in [3:0]  $end
$var wire    4  aaaae  y_in [3:0]  $end
$var wire    4  aaaaf  gcd_out [3:0]  $end
$var wire    2  aaaag  state_out [1:0]  $end
$upscope $end
$enddefinitions  $end

$comment
All initial values are dumped below at time 0 sec = 0 timescale units.
$end

$dumpvars
0aaaaa
1aaaab
0aaaac
b0 aaaad
b0 aaaae
b0 aaaaf
b0 aaaag
$end

#5000
1aaaaa

#10000
0aaaaa
0aaaab

#15000
1aaaaa

#20000
0aaaaa
1aaaac
b111 aaaad
b1110 aaaae

#25000
1aaaaa

#30000
0aaaaa
0aaaac

#35000
1aaaaa
b1 aaaag

#40000
0aaaaa

#45000
1aaaaa
b111 aaaaf

#50000
0aaaaa

#55000
1aaaaa
b10 aaaag

#60000
0aaaaa

#65000
1aaaaa

#70000
0aaaaa

#75000
1aaaaa

#80000
0aaaaa

#85000
1aaaaa

#90000
0aaaaa

#95000
1aaaaa

#100000
0aaaaa

#105000
1aaaaa

#110000
0aaaaa

#115000
1aaaaa

#120000
0aaaaa

#125000
1aaaaa

#130000
0aaaaa

#135000
1aaaaa

#140000
0aaaaa

#145000
1aaaaa

#150000
0aaaaa

#155000
1aaaaa

#160000
0aaaaa

#165000
1aaaaa

#170000
0aaaaa

#175000
1aaaaa

#180000
0aaaaa

#185000
1aaaaa

#190000
0aaaaa

#195000
1aaaaa

#200000
0aaaaa

#205000
1aaaaa

#210000
0aaaaa

#215000
1aaaaa

#220000
0aaaaa

#225000
1aaaaa

#230000
0aaaaa

#235000
1aaaaa

#240000
0aaaaa

#245000
1aaaaa

#250000
0aaaaa

#255000
1aaaaa

#260000
0aaaaa

#265000
1aaaaa

#270000
0aaaaa

#275000
1aaaaa

#280000
0aaaaa

#285000
1aaaaa

#290000
0aaaaa

#295000
1aaaaa

#300000
0aaaaa

#305000
1aaaaa

#310000
0aaaaa

#315000
1aaaaa

#320000
0aaaaa

#325000
1aaaaa

#330000
0aaaaa

#335000
1aaaaa

#340000
0aaaaa

#345000
1aaaaa

#350000
0aaaaa

#355000
1aaaaa

#360000
0aaaaa

#365000
1aaaaa

#370000
0aaaaa

#375000
1aaaaa

#380000
0aaaaa

#385000
1aaaaa

#390000
0aaaaa

#395000
1aaaaa

#400000
0aaaaa

#405000
1aaaaa

#410000
0aaaaa

#415000
1aaaaa

#420000
0aaaaa

#425000
1aaaaa

#430000
0aaaaa

#435000
1aaaaa

#440000
0aaaaa

#445000
1aaaaa

#450000
0aaaaa

#455000
1aaaaa

#460000
0aaaaa

#465000
1aaaaa

#470000
0aaaaa

#475000
1aaaaa

#480000
0aaaaa

#485000
1aaaaa

#490000
0aaaaa

#495000
1aaaaa

#500000
0aaaaa

#505000
1aaaaa

#510000
0aaaaa

#515000
1aaaaa

#520000
0aaaaa

#525000
1aaaaa

#530000
0aaaaa

#535000
1aaaaa

#540000
0aaaaa
1aaaab

#545000
1aaaaa
b0 aaaaf

#550000
0aaaaa
0aaaab

#555000
1aaaaa
b0 aaaag

#560000
0aaaaa
1aaaac
b1100 aaaad
b1000 aaaae

#565000
1aaaaa

#570000
0aaaaa
0aaaac

#575000
1aaaaa
b1 aaaag

#580000
0aaaaa

#585000
1aaaaa

#590000
0aaaaa

#595000
1aaaaa
b100 aaaaf

#600000
0aaaaa

#605000
1aaaaa
b10 aaaag

